qmdscript
…
Now we can explore our Centers

nba %>% 
  filter(Position %in% c("['Center', 'Forward']", "['Center']", "['Forward', 'Center']"),
         Active == "True") %>%  
  group_by(Position) %>% 
  slice_max(order_by = PTS, n = 10) %>% 
  select(Position, Name, PTS, Active, Height_cm, Weight_kg) %>% 
  arrange(Position, desc(PTS))

# A tibble: 30 × 6
# Groups:   Position [3]
   Position              Name                 PTS Active Height_cm Weight_kg
   <chr>                 <chr>              <dbl> <chr>      <dbl>     <dbl>
 1 ['Center', 'Forward'] Karl-Anthony Towns  23.1 True        213.      112.
 2 ['Center', 'Forward'] Victor Wembanyama   22.5 True        221.      107.
 3 ['Center', 'Forward'] Nikola Jokić        21.8 True        211.      129.
 4 ['Center', 'Forward'] Domantas Sabonis    16.1 True        208.      109.
 5 ['Center', 'Forward'] Alperen Şengün      16   True        211.      107.
 6 ['Center', 'Forward'] Bam Adebayo         15.7 True        206.      116.
 7 ['Center', 'Forward'] Myles Turner        14.1 True        211.      113.
 8 ['Center', 'Forward'] Al Horford          12.9 True        206.      109.
 9 ['Center', 'Forward'] Jarrett Allen       12.8 True        211.      110.
10 ['Center', 'Forward'] Jahlil Okafor       10.3 True        208.      122.
# ℹ 20 more rows
…
